// Jest Snapshot v1, https://goo.gl/fbAQLP

exports[`renders correctly 1`] = `
<WithStyles(ForwardRef(Grid))
  alignItems="center"
  container={true}
  direction="row"
  justify="center"
  spacing={3}
>
  <WithStyles(ForwardRef(Grid))
    item={true}
    md={8}
  >
    <WithStyles(ForwardRef(Typography))
      align="center"
      component="h2"
      variant="h5"
    >
      Example test
    </WithStyles(ForwardRef(Typography))>
  </WithStyles(ForwardRef(Grid))>
</WithStyles(ForwardRef(Grid))>
`;
